<?xml version="1.0" encoding="UTF-8"?>
<svg width="71.674mm" height="60.823mm" version="1.1" viewBox="0 0 71.674 60.823" xmlns="http://www.w3.org/2000/svg" xmlns:cc="http://creativecommons.org/ns#" xmlns:dc="http://purl.org/dc/elements/1.1/" xmlns:rdf="http://www.w3.org/1999/02/22-rdf-syntax-ns#" xmlns:xlink="http://www.w3.org/1999/xlink">
<defs>
<linearGradient id="a" x1="27.244" x2="112" y1="67.28" y2="67.186" gradientUnits="userSpaceOnUse">
<stop stop-color="#d70032" offset="0"/>
<stop stop-color="#fa8543" offset="1"/>
</linearGradient>
</defs>
<metadata>
<rdf:RDF>
<cc:Work rdf:about="">
<dc:format>image/svg+xml</dc:format>
<dc:type rdf:resource="http://purl.org/dc/dcmitype/StillImage"/>
<dc:title/>
</cc:Work>
</rdf:RDF>
</metadata>
<g transform="translate(.64891 .17967)">
<path transform="matrix(.26458 0 0 .26458 -.64891 -.17967)" d="m3.5723 0.56641c-1.6649 0-3.0059 1.341-3.0059 3.0059v222.74c0 1.6649 1.341 3.0059 3.0059 3.0059h263.75c1.6649 0 3.0058-1.341 3.0058-3.0059v-222.74c0-1.6649-1.341-3.0059-3.0058-3.0059zm47.688 142.13c0.51088 0.01 0.92935 0.10752 1.2715 0.25391 2.1822 0.50597 1.9243 2.998-0.83984 3.0293-0.04014 4.5e-4 -0.08096 8.5e-4 -0.12109 2e-3 -0.0057 1.5e-4 -0.04803 2e-3 -0.03125-2e-3 -0.01096 4.1e-4 -0.07816 0.0145-0.08398 0.0156-0.15481 0.028-0.10456 0.0188-0.30469 0.0391-0.16248 3e-3 -0.32433 1e-3 -0.48633-0.0137-0.03931-4e-3 -0.31367-0.0353-0.08984-0.0156 0.01625 1e-3 -0.03059-9.2e-4 -0.04687-2e-3 -0.08864-4e-3 -0.17722-0.0147-0.26562-0.0254-0.1082 0.0159-0.21623 0.0328-0.32422 0.0488v0.24219c0 3.0324-2.9944 3.0842-3.1133 0.17187-0.71879 0.28866-1.2412 0.31147-0.86328-0.81445 0.0094-0.0287 0.01789-0.0573 0.02734-0.0859 0.08833-0.23093 0.19748-0.45381 0.34375-0.65429 0.14718-0.19684 0.30723-0.38525 0.50391-0.53516 0.07734-0.0601 0.15038-0.11522 0.24219-0.17969-0.0012 8.1e-4 0.0043-2e-3 0.0039-2e-3 0.01378-0.01 0.02744-0.0194 0.04102-0.0293 0.03049-0.0725 0.05688-0.14634 0.0957-0.21484 0.03946-0.0696 0.0832-0.13686 0.125-0.20508 0.18459-0.26253 0.42643-0.47151 0.70508-0.62891 0.12257-0.0692 0.18574-0.0912 0.3125-0.14257 0.12551-0.0469 0.25589-0.0754 0.38672-0.0977 0.04688-0.0176 0.08759-0.0468 0.13672-0.0625 0.17953-0.053 0.36462-0.0734 0.55078-0.084 0.25096-0.0196 0.49931 0.0212 0.74023 0.0879 0.03146 9e-3 0.05464 0.0119 0.10352 0.0215 0.0325-5e-3 0.0652-0.01 0.09766-0.0156 0.2922-0.0488 0.58504-0.10716 0.88281-0.10157zm-2.4453 2.9473c-0.0062 8e-5 -0.01507 4e-3 -0.02148 4e-3 0.0083 0.01 0.0019 4e-3 0.01367 0.0176 0.09535 0.067 0.18612 0.1402 0.28516 0.20117-0.02335-0.15939-0.12162-0.22466-0.27734-0.22265z" fill="#fff" fill-opacity=".045226" stroke="#000" stroke-opacity=".61809" stroke-width="1.1339"/>
<g transform="translate(-31.372 -14.741)">
<g transform="matrix(.034334 0 0 .040054 51.561 47.909)"></g>
</g>
<g transform="translate(-45.837 -20.954)" fill="url(#a)" stroke-opacity="0">
<path d="m48.388 54.859h19.963c0.38483 0 0.69464 0.30981 0.69464 0.69464v9.6758c0 0.38483-0.30981 0.69464-0.69464 0.69464h-19.963c-0.38483 0-0.69464-0.30981-0.69464-0.69464v-9.6758c0-0.38483 0.30981-0.69464 0.69464-0.69464zm15.268 13.411h47.388c0.44835 0 0.8093 0.36095 0.8093 0.8093v9.6247c0 0.44836-0.36095 0.8093-0.8093 0.8093h-47.388c-0.44836 0-0.8093-0.36095-0.8093-0.8093v-9.6247c0-0.44836 0.36095-0.8093 0.8093-0.8093z" fill="url(#a)" stroke-opacity="0"/>
</g>
<g transform="translate(-45.837 -20.954)" stroke-opacity="0">
<path transform="matrix(.26458 0 0 .26458 45.188 20.774)" d="m18.422 129.95c0.12426 0.31037-0.21278 0.64439-0.10742 0.99024 0.092 0.30213 0.15444 0.62772 0.22852 0.92383 0.0822 0.28244 0.15469 0.56738 0.23047 0.85156 6e-3 0.0234-0.01033-0.0468-0.01563-0.0703 0.11021 0.32878 0.19175 0.66442 0.26953 1.002 0.0592 0.32273 0.10036 0.64909 0.17188 0.96875 0.0081 0.0539 0.46924 9e-3 0.47461 0.0391 2e-3 -0.0151 0.01469 0.0276 0.02148 0.041 0.02645 0.0507 0.05183 0.10169 0.07813 0.15234 0.0014 3.8e-4 0.0026 2e-3 0.0039 2e-3 -0.0042-9e-3 -0.0115-0.023-0.0078-0.0176 4e-3 6e-3 0.0078 0.0117 0.01172 0.0176 0.26826 0.0765 0.55299 0.21041 0.84766 0.40821 0.04949-0.03 0.10719-0.0383 0.17969-0.0156 0.13891 0.0434 0.32522 0.19303 0.56836 0.4707 0.14614 0.0509 0.29191 0.10269 0.43945 0.1504 0.30538 0.10139 0.60691 0.223 0.88281 0.39062 0.16115-0.0948 0.33857-0.16811 0.54883-0.18359 0.55346-0.0408 1.2426 0.21065 1.9355 0.88476 0.16214 0.15772 0.29196 0.34264 0.41797 0.5293 0.06506 0.11626 0.12869 0.1935 0.19336 0.2793 0.09296 0.11297 0.17254 0.23546 0.25586 0.35546 0.06413 0.0873 0.12227 0.17957 0.19531 0.25977 0.10137 0.12004 0.2043 0.23891 0.30273 0.36133 0.09521 0.12361 0.18564 0.24937 0.26953 0.38086-0.0054-4e-3 -0.0147-0.01 0.01758 0.0156 0.0161 0.0104 0.03174 0.0213 0.04687 0.0332-2.66e-4 1.1e-4 -0.0283-0.0146 0.08984 0.0527 0.01243 7e-3 -0.02344-0.0155-0.03516-0.0234-0.0037-3e-3 0.0076 4e-3 0.01172 6e-3 0.01285 6e-3 0.02647 0.0112 0.03906 0.0176 0.04398 0.0227 0.08709 0.0454 0.13086 0.0684 0.08698 0.0444 0.1719 0.094 0.25976 0.13672 0.09989 0.0518 0.10089 0.0488 0.24219 0.11719 0.18503 0.0993 0.35731 0.21881 0.53125 0.33593 0.16345 0.11698 0.33005 0.23046 0.47461 0.3711 0.04401 0.0428 0.08633 0.0885 0.12891 0.13281 0.03209 0.0393 0.0636 0.0798 0.0957 0.11914 0.29235 0.35844-0.18864 0.44014 0.35352 0.74805 0.07234 0.0208 0.28354 0.37056 0.3481 0.39196 0.0238 8e-3 -0.1692-0.34216-0.1938-0.34706 0.30278 0.25098 0.45308 0.46966 0.84639 0.61215 0.24831 0.0836 0.55106 0.19623 0.80329 0.26752 0.34224 0.10518 0.54317 0.19605 0.84788 0.27142 0.43686 0.1192 0.74473 0.0784 1.1695 0.23594 0.27908 0.10254 0.96237 0.0395 1.2353 0.15789 0.48453 0.21021 0.1223 0.0654 2e-3 0.0312 0.28007 0.0927 0.57436 0.18073 0.8457 0.29883 3e-3 1e-3 0.0087 3e-3 0.01172 4e-3 0.19596 0.0648 0.31236 0.0702 0.70898 0.18164 0.1142-0.0364 0.13282 0.0157 0.13282 0.0157 0.0124 2e-3 0.08526-0.0918 0.09766-0.0898 0.59865 0.06 1.0662 0.26532 1.6582 0.37304 0.4236 0.0792 0.86974 0.0997 1.2969 0.15821 0.6322-0.0452 1.2463-5e-3 1.8398 0.10937 0.44358 0.0777 0.61766 0.34253 0.86133 0.38086 0.39801 0.0539 0.794 0.12267 1.1855 0.21289-0.0215-2e-3 -0.0408-7e-3 -0.0625-6e-3 -0.0102 2.7e-4 0.0191 4e-3 0.0293 6e-3 0.0529 7e-3 0.1071 0.0134 0.16016 0.0195 0.17443 0.02 0.34858 0.027 0.52344 0.043 0.43569 0.0355 0.87273 0.0855 1.3105 0.0703 0.40206-4e-3 0.8034-4e-3 1.2051-0.0234 0.25285-0.24745 0.28744-0.71933 0.75097-0.75186 0.24801-0.0155 1.1383-0.28715 1.3818-0.33965 0.21951-0.0559 0.62143-0.0883 0.83303-0.15173 0.22915-0.0794 0.31525-0.0462 0.52757-0.13366 0.42244-0.16698 0.45263 0.14624 0.89327 0.0344 0.33594-0.1015 0.32515-0.31836 0.41605-0.34706 0.091-0.0283 0.53779 0.26847 0.62891 0.24047 0.1443-0.0444 0.07919 0.0699 0.22461 0.0293 0.0663-0.0185 0.07797-0.01 0.14453-0.0273 0.56703-0.14506 1.4275-0.15198 1.9951-0.29482 0.59635-0.14524 0.81279-0.28523 1.4229-0.36143 1.4751-0.18418 1.9524-0.8492 2.9968-0.54488 0.0943-0.0256 0.97143 0.7169 1.0657 0.6914 0.411-0.13686 0.84245-0.2154 1.2695-0.28321 0.46052-0.0713 0.92548-0.0902 1.3906-0.10156 0.49469-9e-3 0.98944-0.0102 1.4844-0.0117 0.35403-9.4e-4 0.70846-2e-3 1.0625-2e-3 0.27031-1.8e-4 0.54025 3e-5 0.81055 0 0.25813-2e-5 0.51723 0 0.77539 0h1.5625c0.37564-4e-3 0.74964-8e-4 1.125 0.0137 1.028 0.0834 2.0196 0.42781 2.873 1.0078 0.17844 0.12129 0.34271 0.26484 0.51367 0.39649 0.52046 0.43322 0.90897 0.97501 1.2617 1.543 0.03845-0.29102 0.10663-0.54621 0.18555-0.78711-0.03966-0.0593-0.07801-0.11938-0.11914-0.17774-0.09019-0.11278-0.16518-0.23591-0.23633-0.36133-0.0028-3e-3 -5e-3 -6e-3 -0.0078-0.01-0.0015-2e-3 0.0596 0.36319 0.0586 0.36119-0.92637-1.1633-0.34872-2.1704 0.52344-2.1191 0.39828 0.0234 0.79567-0.0992 1.2012 0.45117 0.04155 0.0564 0.0774 0.11601 0.11328 0.17578 0.14827-0.0406 0.29815-0.0687 0.44922-0.0684 0.348 9.4e-4 0.69104 0.12395 1.0039 0.3418-0.24661-1.1537 0.30399-1.8128 0.92578-1.8008 0.4933 9e-3 1.0295 0.43949 1.2402 1.373 0.04732 0.20973 0.08209 0.42073 0.10352 0.63477 0.02872 0.26131 0.04765 0.52431 0.05664 0.78711 0.0018 0.18191 0.0049 0.36313 0.01172 0.54492 0.0068 0.159 0.02067 0.3178 0.03125 0.47656 0.08243 1.2433-0.65167 0.37109-1.2969-0.21484 0.07536 0.34429 0.12604 0.7168 0.125 1.1445-5e-5 0.0178 4e-5 0.035 0 0.0527-3.7e-4 0.12007 9.93e-4 0.23935-2e-3 0.35938-3e-3 0.15867-9e-3 0.31822-0.01953 0.47656-0.0132 0.17045-0.02899 0.34123-0.05859 0.50977 0.01-0.12052-0.0038 0.0238-0.0098 0.084-5.01e-4 0.10965-0.0019 0.21847-0.0039 0.32813-3e-3 0.19011-8e-3 0.3805-0.01953 0.57031-0.013 0.19147-0.03149 0.38224-0.05859 0.57226-4.6e-4 2e-3 4.2e-4 9e-3 0 0.0117-0.0168 0.0988 0.0041 0.21039-0.0059 0.31446v3.207c1e-5 0.15246 0 0.30457 0 0.45703 1e-5 0.15983-4e-5 0.31867 0 0.47851 5e-5 0.14249-3.2e-4 0.28527 0 0.42774 3.1e-4 0.1045-4.13e-4 0.20995 2e-3 0.31445 1e-3 0.0782 0.0048 0.15627 0.0098 0.23438 0.0117 0.18411 0.03246 0.36612 0.03516 0.55078 7.1e-4 0.12366 0.0019 0.24746 0.0059 0.37109 2e-3 0.076 5e-3 0.15285 0.01367 0.22852 0.0174 0.16051 0.02986 0.32101 0.03516 0.48242 0.0117 0.18036 0.03557 0.36033 0.04297 0.54101 7e-3 0.20096 0.0195 0.40074 0.0293 0.60157 6e-3 0.21781 0.0069 0.43641 0.0059 0.65429v6.6602c0 0.19423-0.01846 0.3699-0.03516 0.54687h45.258c1.3281 0 2.3965-1.0702 2.3965-2.3984v-30.268c0-1.3283-1.0683-2.3965-2.3965-2.3965zm135.94 4.4316c-1.3283 0-2.3984 1.0702-2.3984 2.3984v36.83c0 1.3283 1.0702 2.3965 2.3984 2.3965h21.455c1.3283 0 2.3965-1.0682 2.3965-2.3965v-36.83c0-1.3283-1.0682-2.3984-2.3965-2.3984zm-23.814 5.084-1.2324 0.70117c0.11524 0.19859 0.2059 0.4103 0.29102 0.62305 9e-3 0.0306 0.0247 0.058 0.0351 0.0879-0.0104 8e-3 -0.0128 0.0117-0.0234 0.0195-0.0132 0.01-3e-3 0.0236 8e-3 0.0391 0.0133-0.0172 4e-3 -0.0106 0.0234-0.0352 6e-3 0.0165 0.0131 0.0325 0.0195 0.0488-0.0111 8e-3 -0.012 8e-3 -0.0234 0.0156 9.8e-4 1e-3 -4.6e-4 3e-3 2e-3 4e-3 -0.0303 0.0226-0.083 0.0627-0.0898 0.0645-0.0405 0.0353-0.0178 0.11238-0.0273 0.16797-0.09 0.6899-0.0405 1.39-2e-3 2.082 0.0421 0.64352 0.0583 1.2868 0.0723 1.9316 0.0102 0.56193-0.0543 1.1209-0.0996 1.6797-0.0548 0.67325-0.0575 1.3454-0.0254 2.0195 0.0363 0.43523 0.0674 0.8712 0.12109 1.3047 0.0508 0.23965 0.12133 0.47526 0.17383 0.71485 0.0293 0.10688 0.0591 0.21387 0.0898 0.32031-5e-3 0.32489-5e-3 0.6498-0.0137 0.97461-0.0252 0.37054-0.0577 0.74036-0.0762 1.1113-0.0161 0.42881-0.0265 0.85829-0.0371 1.2871-0.0147 0.16677-0.0329 0.33335-0.0469 0.5-0.053 0.56807-0.0651 1.1389-0.0723 1.709 5e-3 0.5729-0.0517 1.1443-0.0957 1.7148-0.0158 0.19052-0.0297 0.38135-0.041 0.57226-3e-3 0.0405-5e-3 0.0807-8e-3 0.12109-7e-3 0.0101-0.0114 0.0209-0.0176 0.0312 5e-3 -2e-3 0.0103-5e-3 0.0156-8e-3 -7e-3 0.0263-0.0225 0.0684-0.01 0.0606 0.0869-0.0374 0.17006-0.0833 0.25586-0.12305-2.3e-4 0.10104-2e-3 0.2017-2e-3 0.30274-2e-3 0.18748-3e-3 0.37504-2e-3 0.5625-4e-3 0.0694 0.01 0.13621 0.0215 0.20312-6e-4 6e-3 1.6e-4 0.0117-2e-3 0.0176-6e-3 0.053-0.014 0.1054-0.0215 0.1582-0.17427 0.11133-0.29151 0.18971-0.68946 0.42969 0.011 0.0388 0.0153 0.0802 0.0313 0.11719 0.0107 0.0243 0.048 0.0362 0.0762 0.0527-0.0145 8e-3 -0.0144 7e-3 -0.0274 0.0137 0.0103-4e-3 0.0208-7e-3 0.0312-0.0117 0.0727 0.041 0.16701 0.0701 0.22071 0.0996 0.0862 0.0265 0.16775 0.0655 0.25 0.10157-7.8e-4 0.01-3e-3 0.0195-4e-3 0.0293 2e-3 0.036-1e-3 0.0742 8e-3 0.10938 0.0264 0.1262 0.12905 0.22768 0.23242 0.0957 0.0212-0.011 0.0394-0.026 0.0625-0.0332 0.0435-0.0123 0.0942-0.01 0.14649-6e-3 0.034 0.0155 0.0688 0.0286 0.10156 0.0469 0.0465 0.0196 0.0899 0.0458 0.13672 0.0645-0.0387 0.0961-0.0872 0.18834-0.14258 0.27539-6e-3 0.0235-0.0255 0.0473-0.0176 0.0703 0.0968 0.2897 0.62917 0.19335 0.84766 0.16992 0.0847-0.0182 0.17445-0.0326 0.26367-0.0488 0.33397 0.0662 0.64982-0.10269 0.9375-0.32421 4e-3 0.013 8e-3 0.026 0.0117 0.0391 0.0178 0.0638 0.0298 0.12876 0.0449 0.19336 4e-3 0.0177 0.0895 0.39282 0.12696 0.37695 1.4164-0.59248 1.1371-0.21765 1.3242-0.79297 0.0503-0.19114 0.0646-0.38177 0.0332-0.57812-0.0582-0.37692-0.21256-0.72729-0.375-1.0703-0.0255-0.0552-0.0506-0.1108-0.0762-0.16601 7e-3 -0.0516 0.027-0.10154 0.0254-0.1543 5e-3 -0.15323 0.0148-0.3046 0.0312-0.45703 0.0246-0.2554 0.037-0.51121 0.0469-0.76758 0.0188-0.26834 0.0451-0.53731 0.0391-0.80664 1.9e-4 -0.0867-3.2e-4 -0.17307 0-0.25976 8e-3 -0.0718 0.02-0.14299 0.0273-0.21485 0.038-0.44064 0.077-0.8811 0.1289-1.3203 0.0579-0.4178 0.12785-0.83282 0.18946-1.25 0.0569-0.43143 0.069-0.86822 0.0762-1.3027 3e-3 -0.46091 2e-3 -0.92192 8e-3 -1.3828 4e-3 -0.30688 6e-3 -0.61302 4e-3 -0.91992 0.0104-0.3471-0.0767-0.68678-0.15821-1.0215-9e-3 -0.0333-0.0201-0.0663-0.0293-0.0996 2e-3 -0.22793 6e-3 -0.45574-2e-3 -0.6836-0.0131-0.24769-0.0332-0.49465-0.082-0.73828-0.0556-0.32022-0.0911-0.64284-0.11718-0.96679-3e-3 -0.0312-7e-3 -0.0628-0.01-0.0937 2e-3 -9e-3 1e-3 -0.0252-4e-3 -0.0371-0.016-0.18727-0.0289-0.37622-0.0547-0.5625-0.0258-0.1552-0.0756-0.30315-0.11524-0.45508-0.0115-0.0405-0.0242-0.0804-0.0351-0.1211-0.011-0.19899-0.0191-0.39761-0.0449-0.5957-0.0506-0.26832-0.12247-0.53434-0.22656-0.78711-0.0148-0.0272-0.029-0.0556-0.0449-0.082-0.0673-0.11154-0.0603-0.0847-0.14649-0.20703-0.11798-0.16764-0.21914-0.3468-0.32617-0.52149-0.11042-0.17912-0.2194-0.3586-0.33398-0.53515-0.0671-0.19888-0.14272-0.3935-0.2168-0.58985-0.0768-0.18849-0.14186-0.38394-0.18945-0.58203-0.0402-0.1792-0.10146-0.35176-0.16016-0.52539-0.0483-0.13429-0.10588-0.26429-0.15429-0.39843-0.0287-0.0603-0.0536-0.1223-0.0801-0.1836-5e-3 -0.0646-0.0125-0.12863-0.0156-0.19336-0.0133-0.14082-0.0809-0.24925-0.17383-0.35156-0.0252-0.0253-0.0378-0.0255-0.0605-0.0469-0.0426-0.11563-0.10904-0.21587-0.18164-0.31446-8e-3 -9e-3 -0.01-7e-3 -0.0176-0.0156-7e-3 -0.0194-0.0175-0.037-0.0234-0.0566-0.0879-0.21614-0.19409-0.42277-0.28711-0.63672zm-0.99023 1.5684c-1e-3 1.1e-4 0.01-0.0113 0.01-0.0117-4e-3 2e-3 -4e-3 -1e-3 -8e-3 4e-3 -2e-3 2e-3 1e-3 6e-3 -2e-3 8e-3zm0.01-0.0117c0.0425-0.0277 0.039-0.0302 0.0781-0.0566-9e-3 -0.0105-0.0124-0.0193-0.0195-0.0293-0.0326 0.0423-0.0618 0.0829-0.0586 0.0859zm13.967-1.4473c-0.0565-0.0162-0.11852-0.0142-0.16992 0.0156-0.42105 0.2443-0.83994 0.4938-1.2598 0.74023-0.0336 0.0336-0.048 0.0752-0.0664 0.11524-0.11857 0.083-0.21925 0.15699-0.41211 0.27929-9e-3 6e-3 3e-3 0.20553 4e-3 0.23047 1.2e-4 2e-3 -1.4e-4 4e-3 0 6e-3 0.0132-0.0117 0.0665-0.0513 0.16602-0.12305 0.017-6e-3 0.0356 1e-3 0.0527-4e-3 -0.12303 0.074-0.22499 0.1347-0.21875 0.12695 0.0121 0.17287 0.0153 0.34636 0.0176 0.51953 3e-3 0.18928 2e-3 0.37907 0 0.56836-0.0193 0.086-0.0404 0.17129-0.0508 0.25977-9e-3 0.14471-0.0129 0.28857-0.0137 0.43359 9e-3 0.13727 0.0741 0.25356 0.14258 0.36914 0.0896 0.11108 0.197 0.20593 0.30468 0.29883 0.0896 0.0878 0.20315 0.14502 0.3086 0.21094 0.23902 0.13693 0.35396 0.11685 0.50781-4e-3 0.0495 0.0415 0.0977 0.0846 0.14648 0.12695 0.16909 0.23626 0.34008 0.47067 0.51172 0.70508 0.0348 0.22741 0.0588 0.45627 0.11524 0.67969 0.0425 0.18391 0.0878 0.36654 0.11914 0.55273 0.042 0.19045 0.0765 0.38311 0.13086 0.57032 0.0641 0.16562 0.10871 0.33616 0.16015 0.50586 0.0598 0.16109 0.10171 0.32974 0.15039 0.49414 0.0412 0.19699 0.12207 0.37992 0.18946 0.56836 3e-3 8e-3 5e-3 0.0155 8e-3 0.0234 6e-3 0.0931 7e-3 0.15884 0.0273 0.36524 0.0559 0.3722 0.0962 0.74639 0.14649 1.1191-0.28275 0.0652-0.22638 0.0444-0.21289 0.4082 7e-3 0.33808 0.01 0.67818 0.0293 1.0156 0.0306 0.55692 0.0767 1.111 0.10547 1.668 0.0586 0.83458 0.14064 1.6691 0.16407 2.5059 0.043 0.8784 0.0768 1.7559 0.10742 2.6348 0.0197 0.2578 0.0321 0.52186 0.0879 0.77539 3e-3 0.0125 5e-3 0.0314 6e-3 0.0488-1.9e-4 0.0903 2e-3 0.18115 2e-3 0.27148-6e-3 0.19726-0.0348 0.39255-0.0488 0.58985-0.0387 0.24098-0.0845 0.47989-0.11328 0.72265-0.0223 0.19646-0.027 0.39424-0.0293 0.5918-2e-3 0.14729-2e-3 0.29605-2e-3 0.44336-9e-3 0.19385 0.0121 0.25893 0.16992 0.38086 0.0363 0.0215 0.0792 0.0276 0.11719 0.0449 7e-3 0.13225 8e-3 0.26594 0.0293 0.39649 0.0185 0.037 0.0178 0.12644 0.0566 0.11132 0.28153-0.11032 0.4759-0.18267 0.64062-0.24609 0.0825 0.0249 0.15995 0.0663 0.24805 0.0781 0.5106 0.0352 1.17-0.17545 1.4766-0.60351 0.13625-0.0551 0.14969-0.0777 0.30469-0.31641 0.0525-0.17389 0.0238-0.35579 0.0234-0.53515-0.0144-0.21829-0.0367-0.43596-0.0527-0.6543-0.0102-0.23055-5e-3 -0.46071-8e-3 -0.69141-2e-3 -0.1556-2.9e-4 -0.31116 2e-3 -0.46679 0.0246-0.13457 0.0554-0.26836 0.0742-0.4043 0.04-0.37614 0.0428-0.75491 0.043-1.1328 6.6e-4 -0.43022-2e-3 -0.86082 0-1.291 9.2e-4 -0.14309-1.5e-4 -0.2866 0-0.42969 0.065-0.77723 0.11296-1.5553 0.14649-2.334 0.0333-1.1053 0.0662-2.2108 0.0859-3.3164 0.0155-0.50841-8.1e-4 -1.017-0.0449-1.5234-0.043-0.28146-0.0712-0.56674-0.1543-0.83985-0.0559-0.20236-0.12008-0.40071-0.1914-0.59765-0.0336-0.20749-0.0655-0.41474-0.11719-0.61914-0.10507-0.44751-0.20549-0.89608-0.30859-1.3438h-4e-3c-0.0129-0.0884-0.0352-0.1326-0.084-0.11329-2e-3 -0.14252-2.8e-4 -0.28521-4e-3 -0.42773-0.0193-0.18403-0.0398-0.36677-0.0723-0.54883-0.0287-0.13689-0.0432-0.28025-0.0859-0.41406-3e-3 -0.011-0.083-0.20552-0.0879-0.21875-0.0705-0.14045-0.13553-0.28324-0.20118-0.42578-7e-3 -0.0632-9e-3 -0.12645-0.0176-0.18946-0.16464-0.18295-0.34175-0.35626-0.47852-0.56054 0.0455 0.0398 0.18842 0.15246 0.13672 0.12109-0.097-0.0589-0.15964-0.12424-0.21875-0.19726h-2e-3v-2e-3c7e-3 1.3e-4 0.018 2e-3 -4e-3 -0.0391-0.0442-0.0306-0.0708-0.0692-0.10938-0.0996 0.0253 0.0324 0.0506 0.0643 0.0762 0.0957-0.029-0.0287-0.0594-0.0632-0.0957-0.11523 7e-3 7e-3 0.0122 0.0141 0.0195 0.0195-0.028-0.0355-0.048-0.0659-0.084-0.10547-0.014-0.0157 0.0275 0.0392 0.0508 0.0723-0.10099-0.0823-0.20205-0.15737-0.29492-0.26953-0.15541-0.18745-0.30576-0.37604-0.39844-0.60352-0.11244-0.082-0.23098-0.1738-0.28125-0.28125-0.011-0.0238-0.0116-0.0511-0.0195-0.0762-0.0178-0.0189-0.036-0.0375-0.0527-0.0566-0.0958-0.10923-0.1448-0.24434-0.17578-0.38477-0.30762-0.0539-0.67261-0.10848-1-0.0469-4e-3 1.1e-4 -9e-3 -1.8e-4 -0.0137 0 8e-4 -0.0496-9e-3 -0.0991-0.043-0.15625-0.0448-0.0421-0.0491-0.0556-0.10742-0.0723zm1.3047 0.37696c-0.0299-0.0838 0.0174 0.18011 0.0527 0.26171 5e-3 0.0121 0.0166 0.0199 0.0234 0.0312-0.0238-0.0984-0.0423-0.19756-0.0762-0.29296zm-2.4297 3.5234c-8.9e-4 1e-3 5e-4 3e-3 -2e-3 4e-3 -8e-3 8e-3 -0.0389 0.0186-0.0293 0.0137 0.0106-6e-3 0.0208-0.0115 0.0312-0.0176zm-68.656 0.72069c-0.0039 0.0129-0.0099 0.0219-0.01172 0.0371 0.0046-0.0117 7e-3 -0.0256 0.01172-0.0371zm71.328 17.58c-7e-3 6e-3 -8e-3 0.0178-0.0156 0.0234-0.0193 0.0144-0.0911 0.0297-0.0703 0.0176 0.0363-0.0208 0.0516-0.0223 0.0859-0.041zm-12.703 0.39258c-4e-3 8e-3 -5e-3 0.0189-0.0117 0.0254-0.0105 0.0113-0.0558 0.0101-0.043 6e-3 0.0182-0.0105 0.0364-0.0208 0.0547-0.0312zm-111.43 1.2031c0.01 7e-3 0.02005 0.017 0.03125 0.0195 0.0122 3e-3 0.0011-0.0111-0.0059-0.0195-9e-3 -5.1e-4 -0.01679 3.5e-4 -0.02539 0zm172.57 17.416-110.63 0.35352c-0.0479 0.25782-0.08006 0.51746-0.09766 0.7793-0.0432 0.84128-0.04919 1.6832-0.05859 2.5254-0.0054 0.48512-0.05662 0.92035-0.13476 1.3242 0.232 0.0322 0.46789 0.24017 0.55859 0.67774 0.0019 9e-3 0.0024 4e-3 0.0039 0.0117 0.01247 0.0499 0.03276 0.0978 0.04883 0.14648 0.0325 0.0948 0.06847 0.18781 0.09961 0.28321 0.03175 0.0972 0.06451 0.19484 0.08594 0.29492 0.01323 0.0583 0.02602 0.1175 0.03906 0.17578 0.0094 0.0451 0.01859 0.0892 0.02539 0.13476 0.0045 0.0306 9e-3 0.0607 0.0098 0.0918 1.82e-4 2e-3 -2.78e-4 2e-3 0 4e-3 0.0028 0.0155 0.0079 0.0316 0.01172 0.0469 0.01701 0.0752 0.02709 0.15164 0.03125 0.22852 0.0026 0.0355 0.0048 0.0701 0.0078 0.10547 0.0039 0.0479-0.0057 0.0829-0.0059 0.12695 0.19665 0.11354 0.38666 0.24291 0.5625 0.4082 0.29529 0.30879 0.30903 0.30727 0.60742 0.6836 0.0452 0.0612 0.09001 0.12213 0.13477 0.18359 0.10931 0.15001-0.22231-0.27237 0.09375 0.11719 0.0355 0.0439 0.0703 0.0886 0.10547 0.13281 0.22983 0.30134 0.44895 0.61392 0.60547 0.96094 0.0621 0.12015 0.13169 0.23845 0.19922 0.35547 0.10401 0.1702 0.20494 0.33955 0.29883 0.51562 0.0321 0.0601 0.06365 0.12079 0.09375 0.18164 3e-3 6e-3 0.01049 0.0271 0.0078 0.0215-0.0193-0.0276-0.03258-0.0573-0.05078-0.0859 0.17001 0.28637 0.24549 0.42699 0.40625 0.71094 0.13821 0.26032 0.26303 0.52591 0.34961 0.71679 0.10235 0.22526 0.20658 0.47183 0.27148 0.64063-8e-3 -0.0155-0.03024-0.0627-0.02344-0.0469 0.0725 0.17152 0.1745 0.35373 0.23047 0.51563-9e-5 0.0257-0.17039-0.27764 0.03711 0.0723 0.0121 0.0204 0.05701 0.0733 0.03711 0.0606-0.0227-0.0147-0.03199-0.044-0.04687-0.0664 0.12439 0.189 0.24609 0.38063 0.36328 0.57421 0.0842 0.13436 0.07919 0.12481 0.15234 0.2461 0.0314 0.0518 0.0612 0.10413 0.0918 0.15625 1e-3 3e-3 0.0079 0.01 0.0059 8e-3 -0.0113-0.0121-0.03329-0.0451-0.0078-4e-3 0.12343 0.18183 0.24645 0.36286 0.35742 0.55274 0.17219 0.27114 0.33022 0.54986 0.47266 0.83789 0.045 0.0947 0.13121 0.24833 0.20117 0.37305 0.16051 0.27425 0.31242 0.55301 0.44922 0.83984 0.13951 0.26271 0.26264 0.53263 0.39062 0.80078 0.0878 0.18572 0.18256 0.36831 0.27734 0.55078 0.57021 0.36427 0.79274 1.2797 1.6992 1.5918 0.0121 0.0155 0.02501 0.0315 0.03711 0.0469 0.0628 0.0809 0.17681 0.23391 0.27539 0.36914 0.15212 0.21245 0.29254 0.43076 0.42188 0.65821 0.12937 0.23954 0.16863 0.32209 0.26172 0.50976 3e-3 6e-3 -8e-3 -0.0115-0.01172-0.0176 0.10186 0.20168 0.19903 0.40154 0.2832 0.61133 8e-3 0.0208 0.01464 0.0394 0.02344 0.0625 0.0573 0.1242 0.13099 0.23941 0.18359 0.39844-0.1053-0.20357 0.21051 0.46956 0.11523 0.27344-1e-3 -3e-3 0.0029 5e-3 0.0039 8e-3 0.017 0.0367 0.03584 0.0747 0.05273 0.11133 0.0121 0.0276 0.02326 0.0543 0.03516 0.082 7.1e-4 1e-3 2.77e-4 3e-3 2e-3 4e-3 2e-3 3e-3 0.0029 6e-3 0.0039 8e-3 1e-3 3e-3 0.0019 9e-3 0.0039 0.0117 6.7e-4 2e-3 2.77e-4 4e-3 2e-3 6e-3 8.5e-4 2e-3 0.0029 0.01 0.0039 0.0117 0.025 0.0454 0.04922 0.0913 0.07422 0.13671 0.0657 0.13349 0.01848 0.0454 0.01758 0.0469 2e-3 3e-3 0.01002 8e-3 0.01172 0.0117 0.0461 0.0685 0.05751 0.0841 0.07813 0.11523-0.0548-0.0542-0.08339-0.0827 0.14844 0.14844 0.0183 0.0183-0.01048-0.0104 0.01172 0.0117 0.0576 0.0538 0.19811 0.19002 0.08789 0.0879 0.2194 0.21041 0.11042 0.10583 0.3125 0.30273 0.19132 0.18735 0.37728 0.37804 0.54883 0.58399 0.17242 0.20454 0.33845 0.41465 0.49609 0.63086 0.12254 0.16905 0.27221 0.3721 0.38672 0.57031 0.1736 0.27015 0.30755 0.68502 0.45117 0.97265 0.40679 1.381 0.48324 0.92354 0.48438 1.2344 0.11532 0.23374 0.22719 0.47051 0.3125 0.7168 0.0391 0.10718 0.13788 0.35445 0.22266 0.5957 0.0543 0.16388 0.06851 0.2066 0.11524 0.36719 9e-3 0.0299 0.01884 0.058 0.02734 0.0879 0.016 0.0379 0.02777 0.0771 0.04297 0.11523-2e-3 -3e-3 0.01033 8e-3 0.0098 6e-3 -0.0441-0.0566 0.05434 0.0717 0.08594 0.125-0.0595-0.0842-0.02885-0.0396 0.06445 0.0899-0.0962-0.12065 0.0605 0.0747 0.12891 0.17383 0.0532 0.077 0.1272 0.20008 0.18945 0.30468-0.0202-0.0275 0.03027 0.0483 0.04297 0.0664 0.0977-0.0869 0.21302-0.14419 0.37305-0.125 0.29886 0.0358 0.71782 0.27638 1.2969 0.78906 0.18074 0.16003 0.36223 0.32047 0.54297 0.48047 0.23538 0.42916 0.56845 0.81708 0.70508 1.2871 0.24547 0.84443 0.10432 1.4586-0.18946 2.207 0.31312 0.69759 0.50391 1.5806 0.50391 2.6562v1.7012c0 0.0854-0.0133 0.15721-0.0156 0.24024h70.539c0.12983-0.36626 0.29016-0.74261 0.50781-1.1387 0.0751-0.13668 0.11807-0.23839 0.17578-0.37304 5e-3 -0.0221 0.0105-0.0443 0.0156-0.0664 4e-3 -0.0208 9e-3 -0.0417 0.0137-0.0625-0.0641-0.52264-0.0868-1.0928-0.0293-1.7363v-4e-3c0.0197-0.22049 0.073-0.43184 0.125-0.64649 9e-3 -0.0389 0.0372-0.11012 0.043-0.1582 0.017-0.0636 0.0335-0.12592 0.0508-0.18945 0.095-0.34872-0.12053 0.50939 0.0723-0.30078 0.10511-0.42001 0.27179-0.73412 0.4375-1.0391 0.039-0.0702 0.0769-0.12417 0.11523-0.18554 0.0908-0.27566 0.19246-0.52556 0.31836-0.79493 0 0-0.1284-0.0875 0.0244-0.51213 0.0967-0.40808 0.66968-1.2074 0.91456-1.5248 0.17839-0.21701 0.24193-0.23209 0.39954-0.4452 0.11346-0.14601-0.11664 0.14324 0 0 0.36753-0.31707 0.22813-0.81799 0.23013-0.81899-0.0213 2e-3 0.15338 0.15647 0.18728 0.11877 0 0 0.0181-0.3709 0.0176-0.3699l0.12357 0.0402c0.0609-0.0931-0.0323 0.0445 0 0 0.1329-0.16377 0.1072-0.15443 0.15599-0.21436 0.0353-0.0552 0.0429-0.0579 0.0802-0.11174 0.0234-0.0929 0.1723-0.24891 0.1953-0.34179 0.0723-0.30981 0.25381-0.25425 0.34569-0.5586 0.0824-0.32009 0.34768-0.54654 0.4629-0.85547 0.0882-0.23823 0.19225-0.47151 0.29687-0.70117 0.0695-0.1682 0.10802-0.2648 0.22071-0.50195 0.13255-0.29454 0.31273-0.56355 0.49023-0.83203 0.13712-0.20603 0.28105-0.40704 0.43164-0.60352 0.0317-0.0396 0.0636-0.0799 0.0957-0.11914 0.0923-0.11297 0.0981-0.11756 0.19141-0.23828 0.0873-0.11317 0.10448-0.13302 0.1582-0.19726 3e-3 -4e-3 5e-3 -8e-3 8e-3 -0.0117 1e-3 -1e-3 3e-3 -2e-3 4e-3 -4e-3 8.1e-4 -1e-3 0.0107-5e-3 0.0117-6e-3 5e-3 -7e-3 9e-3 -0.016 0.0137-0.0234 0.0403-0.0741 0.0903-0.14628 0.13282-0.21875 0.10454-0.16505 0.20922-0.32881 0.32226-0.48828 0.11157-0.15745 0.0755-0.0901 0.10547-0.14844 9e-3 -0.0133 0.0159-0.0258 0.0254-0.0391-8e-3 0.0114 0.0333-0.0485 0.0254-0.0371 0.029-0.043 0.0613-0.087 0.0918-0.1289 0.13293-0.18246 0.17559-0.23151 0.13086-0.17969-2e-3 3e-3 0.0117-0.0117 0.0117-0.0117 0.017-0.0227 0.0641-0.0921 0.0488-0.0684 0.0145-0.0198 0.0304-0.0388 0.0449-0.0586-7e-3 0.0113 0.0152-0.0217 0.0234-0.0332 9e-3 -0.0138 0.0196-0.0274 0.0293-0.041 0.0194-0.0275 0.0374-0.0564 0.0566-0.084 0.15056-0.20437 0.31538-0.39727 0.48047-0.58984 0.0714-0.11064 0.15138-0.2176 0.22852-0.32422 0.13447-0.21109 0.28984-0.40746 0.44531-0.60351 6e-3 -7e-3 0.73947 0.0289 0.74417 0.0215 0.0722-0.1101 0.47967 0.31861 0.24024-0.3164-0.0419 0.0534-0.70247-0.0829-0.68947-0.0996 0.47761 0.45371 0.44571-0.1435 0.47851-0.19336 0.0965-0.15394 0.39838-0.26718 0.47461-0.375 0.0995-0.13788 0.26434-0.32877 0.41015-0.51953 0.22353-0.2798-0.25663 0.0473 0.0215-0.32422 0.0633-0.0817-0.17598-0.016-0.0293-0.21288 8e-3 -0.0234 0.14218-0.0735 0.15628-0.0937 0.1731-0.24933-0.0958-0.0726 0.0781-0.29102-0.0317 0.0355 0.18011-0.16867 0.16791-0.15237-0.17654 0.23935 0.0318-0.21769 0.084-0.28319 0.17461-0.19525 0.30842-0.43752 0.50195-0.61524 0.0325-0.0299-0.0609 0.0607-0.0918 0.0918 0.13912-0.15549 0.19292-0.21639 0.33594-0.38281-7e-3 7e-3 -0.0279 0.029-0.0215 0.0215 0.10042-0.12196 0.20325-0.24292 0.30078-0.36719 0.12121-0.14887 0.23076-0.30533 0.3457-0.45899 0.0567-0.084 0.1147-0.16287 0.16992-0.24414 7e-3 -9e-3 0.026-0.0351 0.0195-0.0254 0.11372-0.1697 0.19065-0.26955 0.26172-0.38476 0.10118-0.16489 0.20401-0.32743 0.3086-0.49024 0.0459-0.0953 0.10474-0.19025 0.16211-0.29687 0.0874-0.16188 0.17966-0.3213 0.27539-0.47852 0.0348-0.0571 0.0527-0.0801 0.0234-0.0371 0.0665-0.12038 0.16534-0.2691 0.21485-0.36523-6.3e-4 1e-3 5.4e-4 -5e-3 2e-3 -6e-3 0.0968-0.19391 0.19938-0.38571 0.30274-0.57617 0.0533-0.1231 0.27242-0.46682 0.41796-0.66992-0.0568 0.0777-0.0293 0.0371 0.01-0.0215 0.0463-0.0795 0.0972-0.15691 0.14648-0.23437-6e-3 8e-3 -0.0225 0.0321-0.0176 0.0234 0.0834-0.15023 0.18258-0.28974 0.27929-0.43164 6e-3 -9e-3 0.0202-0.0331 0.0176-0.0293l2e-3 -2e-3c9e-3 -0.0143 0.0181-0.0285 0.0274-0.043 0.0638-0.11122 0.14105-0.22511 0.20508-0.32031 0.0933-0.14525 0.20159-0.28356 0.27929-0.39648 0.0102-0.0147-0.0226 0.0285-0.0332 0.043 0.11568-0.17559 0.24156-0.34284 0.36523-0.51172 0.0929-0.14045 0.19578-0.27577 0.30274-0.40625 0.17938-0.2188 0.0985-0.10089 0.14453-0.16797 0.0371-0.0434 0.06-0.0659 0.0723-0.0801 0.0321-0.10825 0.0611-0.21047 0.11328-0.36719 0.28626-0.0577 0.36363-0.20393 0.42187-0.44531 0.57636-0.42971 0.58977-0.95435 0.63086-1.4453-0.60293-0.1999-0.90213-1.0343-0.22656-2.0703 0.0295-0.0449 0.0149-0.0217 0.0469-0.0703 0.084-0.12438 0.17218-0.24609 0.27539-0.35547 0.10194-0.10563 0.20936-0.20525 0.32422-0.29687 0.13629-0.10647 0.27435-0.20991 0.41211-0.31445 0.16808-0.12979 0.33215-0.26618 0.48828-0.41016 0.0767-0.0716 0.15568-0.14224 0.21875-0.22656 0.0146-0.0149 0.0564-0.0856 0.0801-0.125s0.0286-0.0493-0.0254 0.0547c-0.0962 0.18531-0.1346 0.31423-0.14844 0.41796 0.0963-0.0899 0.18886-0.18347 0.27735-0.28125 0.17144-0.17363 0.31724-0.36777 0.44922-0.57226 0.16403-0.2558 0.30902-0.52257 0.44726-0.79297 0.16769-0.33101 0.34034-0.6602 0.51367-0.98828 0.16636-0.31537 0.32524-0.63465 0.50391-0.94336 0.16194-0.29057 0.35211-0.56377 0.55078-0.83008 0.0972-0.12736 0.20086-0.24948 0.30274-0.37305-0.13239-0.0304-0.38523-0.0848-0.38282-0.0879zm-122.43 1.0762c-0.0367 0.0338-0.06481 0.0756-0.09961 0.11132 0.0324-0.0216 0.0634-0.0409 0.0957-0.0625 2e-3 -0.0159 6.63e-4 -0.033 0.0039-0.0488zm11.16 5.7031c-0.0113 3e-4 0.0226 8e-3 0.0332 0.0117 0.0206 6e-3 0.03809 0.0154 0.05859 0.0215-0.0176-7e-3 -0.03513-0.0144-0.05273-0.0215-0.0125-5e-3 -0.02536-0.0121-0.03906-0.0117zm105.82 4.418c-4e-3 0.0179-0.0118 0.0348-0.0156 0.0527-8e-3 0.0379-0.0256 0.15161-0.0195 0.11328 0.0128-0.0832 0.0275-0.12437 0.0352-0.16601zm-87.537 22.289c-0.0937 0.0835-0.25723 0.15728-0.43555 0.22852-0.0761 0.39329-0.0491 0.66898 0.4668 0.35937 0.0227-0.0136 0.0456-0.0273 0.0684-0.041 5e-3 -3e-3 0.019-0.0123 0.0156-8e-3 -7e-3 0.011-0.0183 0.0179-0.0273 0.0273-0.0136 0.0144-0.0278 0.0297-0.041 0.0449-0.0291 0.0333-0.0551 0.0685-0.082 0.10352-0.0696 0.0878-0.11035 0.17728-0.14648 0.28124-0.0136 0.0454-7e-3 0.0227-0.0195 0.0684-7e-3 0.0239-0.0181 0.0376-0.0254 0.0606 0.0962 0.14604 0.19498 0.2879 0.27734 0.45703 0.16384-0.81939 0.1294-1.3175-0.0508-1.582zm72.797 0.21094c8e-3 -0.0132-0.0178 0.0237-0.0254 0.0371-0.012 0.0205-0.0234 0.0417-0.0351 0.0625 0.0199-0.0314 0.0417-0.0689 0.0605-0.0996zm-0.93164 4.5059c5.7e-4 -3e-3 -3e-3 3e-3 -4e-3 6e-3 -2e-3 5e-3 -3e-3 0.0118-4e-3 0.0176 3e-3 -8e-3 6e-3 -0.0155 8e-3 -0.0234z" fill="#fff"/>
<g transform="translate(11.238 9.3889)" fill="#00f" aria-label="Training     Manager">
<path d="m98.825 62.481q-0.1602-0.09302-0.3514-0.13436-0.18604-0.04651-0.41341-0.04651-0.80615 0-1.2402 0.5271-0.42891 0.52193-0.42891 1.5038v3.0489h-0.95601v-5.7878h0.95601v0.89917q0.29972-0.5271 0.78031-0.78031 0.48059-0.25838 1.1679-0.25838 0.09819 0 0.21704 0.0155 0.11886 0.01033 0.26355 0.03617zm-4.9144 1.7673v0.46509h-4.3718q0.06201 0.98185 0.58911 1.4986 0.53227 0.5116 1.4779 0.5116 0.54777 0 1.0594-0.13436 0.51676-0.13436 1.0232-0.40308v0.89917q-0.5116 0.21704-1.049 0.33073t-1.0904 0.11369q-1.3849 0-2.1962-0.80615-0.80615-0.80615-0.80615-2.1807 0-1.4211 0.76481-2.2531 0.76998-0.83716 2.0722-0.83716 1.1679 0 1.8448 0.75448 0.68213 0.74931 0.68213 2.0412zm-0.95085-0.27905q-0.01033-0.78031-0.43925-1.2454-0.42375-0.46509-1.1265-0.46509-0.79582 0-1.2764 0.44958-0.47542 0.44958-0.54777 1.2661zm-22.844-51.781c-5.0565-2e-6 -9.1705 4.1138-9.1705 9.1705s4.1138 9.17 9.1705 9.17c5.0567 0 9.1705-4.1133 9.1705-9.17 0-5.0567-4.114-9.1705-9.1705-9.1705zm16.971 5.4095c-0.26433-0.0067-0.53 0.0069-0.79788 0.04186-1.163 0.15172-2.2815 0.3838-3.1688 1.1384l-0.4408 0.74001c-0.03611 0.317-0.13039 0.63042-0.09715 0.9524 0.10074 0.94397 0.20112 1.8954 0.39998 2.8365 0.08804 0.4256 0.37144 0.86758 0.64337 1.2475 0.21457 0.30082 0.53071 0.55952 0.90227 0.38757 0.04503-0.02165 0.13954 0.0217 0.19895 0.05684 0.48357 0.2876 0.90244 0.31234 1.1576-0.04186 0.28339 0.04358 0.52578 0.14243 0.70848 0.09198 0.34947-0.09439 0.6584-0.26209 1.0392-0.32814 0.61419-0.10717 0.92034-1.1543 0.65112-1.8355 0.10564-0.04248 0.21885-0.07096 0.31936-0.12506 0.11489-0.05801 0.21956-0.13184 0.32505-0.20102 0.23457-0.1578 0.44343-0.10412 0.65319 0.17777 1.3751 1.8736 2.5176 3.8344 3.022 6.0771 0.41414 1.8344 1.1724 3.5697 2.2293 5.2017 0.16166 0.248 0.3183 0.50384 0.5178 0.82321-4.36-2.3593-7.3457-1.4604-9.0103 2.6505-1.8236-2.4523-4.2687-3.0243-6.073-2.4867-0.02663-9e-3 -0.05178-0.02069-0.07855-0.02945l-0.0155-0.0052-2.6169-0.80305c-0.41275-0.127-0.85409 0.09149-1.0025 0.49868l-4.9604 13.609c0.41644 0.08266 0.74949 0.27184 0.99632 0.57102 0.34106 0.41 0.51159 1.0146 0.51159 1.8139v3.4933h-0.95085v-3.4623c0-0.54777-0.1068-0.95774-0.3204-1.2299-0.13636-0.17375-0.31661-0.29167-0.54002-0.3545l-0.2403 0.65991c-0.27673 0.75939-1.2481 0.85632-1.7033 0.29197-0.08974 0.23895-0.13643 0.51277-0.13643 0.82372v3.2711h-0.95601v-5.7878h0.41806l-4.993-13.7c-0.11986-0.32888-0.43016-0.53485-0.76274-0.53485-0.07887 0-0.15886 0.01183-0.23823 0.03617l-2.6153 0.80202c-0.26558 0.0885-0.52104 0.1942-0.77205 0.30696-1.8181-0.62484-4.357-0.09933-6.2373 2.4293-1.6646-4.1109-4.6503-5.0092-9.0103-2.65 0.19951-0.31938 0.35666-0.57521 0.51832-0.82321 1.0569-1.632 1.8147-3.3679 2.2288-5.2023 0.50441-2.2428 1.6469-4.2036 3.022-6.0771 0.20977-0.28189 0.41862-0.33557 0.65319-0.17777 0.10547 0.06918 0.21016 0.14353 0.32505 0.20154 0.10051 0.0541 0.21372 0.08257 0.31936 0.12506-0.26921 0.68129 0.03693 1.7279 0.65112 1.835 0.3808 0.06605 0.68974 0.23427 1.0392 0.32866 0.1827 0.05044 0.4251-0.04841 0.70848-0.09198 0.25511 0.3542 0.67399 0.32945 1.1576 0.04186 0.05942-0.03514 0.15392-0.07901 0.19896-0.05736 0.37155 0.17195 0.6877-0.08676 0.90227-0.38757 0.27194-0.37989 0.55533-0.82187 0.64337-1.2475 0.19886-0.94112 0.29924-1.892 0.39998-2.836 0.03324-0.32198-0.06104-0.6354-0.09715-0.9524l-0.4408-0.74001c-0.88726-0.75463-2.0058-0.98671-3.1688-1.1384-0.26788-0.03496-0.53356-0.0486-0.79788-0.04186-1.1454 0.0292-2.2596 0.43857-3.3626 1.1296-0.13374 0.08575-0.27712 0.15611-0.41548 0.23409l-1.896 1.4847c-0.42895 0.3928-0.84993 0.79828-1.2893 1.1803-2.954 2.575-5.5964 5.4711-7.8109 8.7685-1.8135 2.7025-2.6961 5.6323-2.7864 8.6853 1.7e-4 0.03402-0.02089 0.07325-0.03204 0.10852l0.2558 0.42943c0.89635 0.61472 1.5652 1.4341 1.9725 2.5228 0.32956 0.88401 0.75199 1.7146 1.1327 2.5699 0.03955 0.08666 0.06117 0.1834 0.0925 0.27647l0.73484 1.2346h6.5267v0.8785h-2.7388v1.8226c0.67207 0.19908 1.3827 0.30705 2.1239 0.3421v-1.1157h0.95601v0.89917c0.19982-0.3514 0.45992-0.6115 0.78031-0.78031 0.3204-0.17226 0.70969-0.25838 1.1679-0.25838 0.06546 3e-6 0.1378 0.0052 0.21704 0.0155 0.07924 0.0069 0.16709 0.01894 0.26355 0.03617l0.0047 0.91467c0.35716-0.07339 0.71375-0.16277 1.0702-0.26097v-0.30231c0.34796-0.13436 0.68557-0.23427 1.0129-0.29972 0.32728-0.0689 0.64595-0.10335 0.95601-0.10335 0.83716 0 1.4624 0.21704 1.8759 0.65112 0.06277 0.06591 0.11884 0.13874 0.17208 0.21497 0.39106 0.10447 0.7897 0.1722 1.1953 0.20567v9.3638c0 0.15848 0.04628 0.31393 0.13333 0.44648l0.36742 0.55914h0.01809l0.02377 0.06408 2.4784 3.7708 1.4459-3.8349h1.5555v7.7153h-0.45114l0.30489 0.46405-0.06666 2.8019c-0.01028 0.43123 0.36387 0.81287 0.81287 0.81287h17.884c0.45988-3e-6 0.80217-0.36426 0.81287-0.81287l0.06718-2.8019 0.30489-0.46405h-0.84801v-0.8785c-0.21704 0.3514-0.48748 0.6115-0.81132 0.78031-0.32384 0.16536-0.72003 0.24805-1.1886 0.24805-0.59256 0-1.0645-0.16536-1.4159-0.49609-0.34796-0.33417-0.52193-0.78032-0.52193-1.3384 0-0.65112 0.21704-1.142 0.65112-1.4728 0.43753-0.33073 1.0886-0.49609 1.9534-0.49609h1.3333v-0.09302c0-0.43753-0.14469-0.77515-0.43408-1.0129-0.28594-0.24116-0.68902-0.36174-1.2092-0.36174-0.33073 0-0.65284 0.03962-0.96635 0.11886-0.3135 0.07924-0.61495 0.19809-0.90434 0.35656v-0.8785c0.34796-0.13436 0.68558-0.23427 1.0129-0.29972 0.32728-0.0689 0.64595-0.10335 0.95601-0.10335 0.83716 0 1.4624 0.21704 1.8759 0.65112 0.41341 0.43408 0.62012 1.0921 0.62012 1.974v3.1455l1.5694-2.388c-0.0113-0.13479-0.01912-0.27258-0.01912-0.41651 0-0.89573 0.21704-1.614 0.65112-2.1549 0.40712-0.50728 0.93692-0.7736 1.5865-0.80512l1.5467-2.3533c0.08705-0.13256 0.13384-0.288 0.13384-0.44648v-9.6981c0.71239-0.15093 1.4019-0.4124 2.0722-0.76688 0.2154-0.11209 0.39752-0.11393 0.65009-0.0186 1.642 0.62932 3.2953 1.0098 4.9516 1.0888 2.3547 0.1137 4.4531-0.39444 6.0952-1.958 0.34055-0.32903 0.64571-0.72039 0.97513-1.0847l0.73485-1.234c0.0313-0.09309 0.0529-0.19033 0.0925-0.27698 0.38076-0.8553 0.80318-1.6853 1.1327-2.5694 0.40729-1.0887 1.0762-1.9081 1.9725-2.5228l0.2558-0.42995c-0.0111-0.03528-0.0322-0.07399-0.032-0.10801-0.0903-3.053-0.97291-5.9828-2.7864-8.6853-2.2145-3.2973-4.8569-6.1935-7.8109-8.7685-0.4394-0.38201-0.86038-0.788-1.2893-1.1808l-1.8961-1.4847c-0.13836-0.07799-0.28174-0.14834-0.41548-0.23409-1.103-0.69108-2.2172-1.1004-3.3626-1.1296zm-3.0205 43.861-2.2185 3.3765c0.05873 0.70081 0.26794 1.2796 0.632 1.7332 0.43408 0.54088 1.006 0.81132 1.7157 0.81132 0.42719 0 0.79409-0.0844 1.1007-0.25321 0.30661-0.16881 0.5581-0.42375 0.75448-0.76481v0.47025c0 0.65801-0.15503 1.1489-0.46509 1.4728-0.31006 0.32728-0.77687 0.49093-1.4004 0.49093-0.2825 0-0.55983-0.03617-0.83199-0.10852-0.27216-0.07234-0.54777-0.18431-0.82682-0.3359v0.92501c0.27905 0.10335 0.56672 0.17914 0.86299 0.22738 0.29628 0.05167 0.6115 0.07751 0.94568 0.07751 0.90262 0 1.5727-0.24116 2.0102-0.72347 0.43753-0.47887 0.65629-1.211 0.65629-2.1962v-5.0695h-0.95085v0.8785c-0.19637-0.34106-0.44786-0.596-0.75448-0.76481-0.30662-0.16881-0.67352-0.25321-1.1007-0.25321-0.04409 0-0.08617 0.0041-0.12919 0.0062zm-3.7879 5.7645-0.10284 0.15658h0.10284zm-20.223 0.15658-0.56689-0.86248v0.86248zm-0.56689-0.86248v-5.9123l-1.4139 3.761zm-1.4139-2.1513-0.56947-0.86661-0.5333 1.4154-1.9451-5.1862-0.04186-0.06408h-1.5374v7.7153h1.0129v-6.7748l1.9895 5.2917h1.049zm-4.7858-15.277c-0.58666-0.15672-1.1581-0.38704-1.7162-0.68213-0.2154-0.11211-0.39752-0.11393-0.65009-0.01861-0.54888 0.21038-1.0994 0.38819-1.6505 0.54002v0.57619c0.28939-0.15847 0.59083-0.27733 0.90434-0.35657 0.3135-0.07924 0.63562-0.11885 0.96635-0.11886 0.52021 0 0.92329 0.12058 1.2092 0.36174 0.28939 0.23771 0.43408 0.57533 0.43408 1.0129v0.09302h-1.3333c-0.86472 0-1.5158 0.16537-1.9534 0.49609-0.43408 0.33073-0.65112 0.82166-0.65112 1.4728 0 0.5581 0.17397 1.0042 0.52193 1.3384 0.3514 0.33073 0.82338 0.49609 1.4159 0.49609 0.46853 2e-6 0.86472-0.08268 1.1886-0.24805 0.32384-0.16881 0.59428-0.42891 0.81132-0.78032v0.8785h0.95085v-3.3021c0-0.74803-0.15064-1.3332-0.44804-1.7591zm-5.087 0.10025c-0.03036 0.0062-0.06059 0.01255-0.09095 0.0186 0.03059 0.01432 0.06241 0.02654 0.09147 0.04341zm-0.09095 0.0186c-0.08184-0.03832-0.16714-0.07089-0.25993-0.09095-0.12402-0.03101-0.26183-0.04651-0.41341-0.04651-0.45612 0-0.82222 0.12775-1.0997 0.38086 0.59161-0.04404 1.1827-0.12579 1.773-0.2434zm-1.773 0.2434c-0.12226 0.0091-0.2446 0.02001-0.3669 0.02584-0.39388 0.01902-0.78001 0.01894-1.1586 1e-3v4.6721h0.95601v-3.0489c3e-6 -0.65457 0.14297-1.1558 0.42892-1.5038 0.04379-0.05317 0.09109-0.10112 0.14056-0.14624zm-3.6494-0.31523c-0.36131-0.107-0.71084-0.24132-1.049-0.40256v5.4167h1.049zm-1.049-0.40256v-1.4201h-1.9637c0.06583 0.07014 0.13179 0.13978 0.19999 0.20567 0.54054 0.51468 1.1314 0.91296 1.7637 1.2144zm-1.9637-1.4201c-0.26292-0.28012-0.51169-0.58715-0.77515-0.8785v0.8785zm28.995 1.049 0.51056 1.4009c0.04077 0.11188 0.09675 0.20882 0.16381 0.29197 0.07332-0.19522 0.17477-0.36754 0.30799-0.5147 0.29628-0.32728 0.70108-0.49093 1.2144-0.49093 0.15447 0 0.29462 0.01816 0.42116 0.05375l0.30334-0.83147c-0.15899-0.03156-0.32892-0.04909-0.51263-0.04909-0.40308 0-0.75965 0.08613-1.0697 0.25838-0.30662 0.17226-0.57361 0.43236-0.80099 0.78031v-0.89917zm0.29714-14.959c-0.30771 0-0.61163 0.11407-0.81959 0.34055-0.322 0.35084-0.36838 0.85761-0.14004 1.2537l1.2263 1.8485-0.57412 4.8426 1.1302 3.0065c0.11033 0.30242 0.53769 0.30242 0.64802 0l1.1307-3.0065-0.57412-4.8426 1.2263-1.8485c0.22913-0.39606 0.18196-0.90283-0.14004-1.2537-0.20796-0.22648-0.51188-0.34055-0.81959-0.34055zm-13.267 12.706h0.95085v1.2041h-0.95085zm9.6532 0h0.95085v1.2041h-0.95085zm-3.9274 2.1136c0.6649 0 1.1679 0.20671 1.509 0.62012 0.34106 0.40997 0.5116 1.0146 0.5116 1.8138v3.4933h-0.95085v-3.4623c0-0.54777-0.1068-0.95774-0.32039-1.2299-0.2136-0.27216-0.53399-0.40824-0.96118-0.40824-0.51332 0-0.91812 0.16364-1.2144 0.49093-0.29628 0.32728-0.44442 0.77342-0.44442 1.3384v3.2711h-0.95601v-5.7878h0.95601v0.89917c0.22738-0.34795 0.49437-0.60806 0.80098-0.78031 0.31006-0.17226 0.66663-0.25838 1.0697-0.25838zm15.534 0c0.42719 0 0.79409 0.08441 1.1007 0.25322 0.30661 0.16881 0.5581 0.42375 0.75448 0.76481v-0.8785h0.95085v5.0695c0 0.9853-0.21876 1.7174-0.65629 2.1962-0.43753 0.48231-1.1076 0.72347-2.0102 0.72347-0.33417 0-0.6494-0.02584-0.94568-0.07751-0.29628-0.04823-0.58394-0.12403-0.86299-0.22738v-0.92501c0.27905 0.15158 0.55466 0.26355 0.82682 0.3359 0.27216 0.07235 0.54949 0.10852 0.83199 0.10852 0.62356 0 1.0904-0.16364 1.4004-0.49093 0.31006-0.32384 0.46509-0.81477 0.46509-1.4728v-0.47026c-0.19637 0.34106-0.44786 0.596-0.75448 0.76481-0.30662 0.16881-0.67352 0.25321-1.1007 0.25321-0.70969 0-1.2816-0.27044-1.7157-0.81132-0.43408-0.54088-0.65112-1.2575-0.65112-2.1497 0-0.89573 0.21704-1.614 0.65112-2.1549 0.43408-0.54088 1.006-0.81132 1.7157-0.81132zm-21.26 0.13953h0.95085v5.7878h-0.95085zm9.6532 0h0.95085v5.7878h-0.95085zm11.839 0.65629c-0.50988 0-0.90778 0.18948-1.1937 0.56844-0.2825 0.37896-0.42375 0.91295-0.42375 1.602 0 0.68558 0.14125 1.2178 0.42375 1.5968 0.28594 0.37896 0.68385 0.56844 1.1937 0.56844 0.51332 0 0.91123-0.18948 1.1937-0.56844 0.28594-0.37896 0.42892-0.91123 0.42892-1.5968 0-0.68902-0.14297-1.223-0.42892-1.602-0.2825-0.37896-0.6804-0.56844-1.1937-0.56844zm-25.352 2.2221h0.94568v0.21187c0 0.62012-0.1602 1.1179-0.48059 1.4935-0.31695 0.37207-0.73897 0.5581-1.2661 0.5581-0.3824 0-0.68558-0.09818-0.9095-0.29456-0.22048-0.19982-0.33073-0.46853-0.33073-0.80615 0-0.42374 0.14814-0.72347 0.44442-0.89917 0.29628-0.1757 0.82855-0.26355 1.5968-0.26355zm12.733 10.211c0.83716 0 1.4624 0.21704 1.8759 0.65112 0.41341 0.43408 0.62012 1.0921 0.62012 1.974v3.3021h-0.95085v-0.8785c-0.21704 0.3514-0.48748 0.6115-0.81132 0.78031-0.32384 0.16536-0.72002 0.24805-1.1886 0.24805-0.59256 0-1.0645-0.16536-1.4159-0.49609-0.34795-0.33417-0.52193-0.78032-0.52193-1.3384 0-0.65112 0.21704-1.142 0.65112-1.4728 0.43753-0.33073 1.0887-0.49609 1.9534-0.49609h1.3333v-0.09302c0-0.43753-0.1447-0.77515-0.43408-1.0129-0.28594-0.24116-0.68902-0.36174-1.2092-0.36174-0.33073 0-0.65285 0.03962-0.96635 0.11886-0.3135 0.07924-0.61495 0.19809-0.90434 0.35656v-0.8785c0.34795-0.13436 0.68557-0.23427 1.0129-0.29972 0.32728-0.0689 0.64596-0.10335 0.95601-0.10335zm7.2502 0c0.6649 0 1.1679 0.20671 1.509 0.62012 0.34106 0.40997 0.5116 1.0146 0.5116 1.8138v3.4933h-0.95085v-3.4623c0-0.54777-0.1068-0.95774-0.3204-1.2299-0.2136-0.27216-0.53399-0.40824-0.96118-0.40824-0.51332 0-0.91812 0.16364-1.2144 0.49093-0.29628 0.32728-0.44442 0.77342-0.44442 1.3384v3.2711h-0.95601v-5.7878h0.95601v0.89917c0.22738-0.34795 0.49437-0.60806 0.80099-0.78031 0.31006-0.17226 0.66662-0.25838 1.0697-0.25838zm12.604 0.79582c0.51332 0 0.91123 0.18948 1.1937 0.56844 0.28594 0.37896 0.42892 0.91295 0.42892 1.602 0 0.68558-0.14297 1.2178-0.42892 1.5968-0.2825 0.37896-0.68041 0.56844-1.1937 0.56844-0.50988 0-0.90778-0.18948-1.1937-0.56844-0.2825-0.37896-0.42375-0.91122-0.42375-1.5968 0-0.68902 0.14125-1.223 0.42375-1.602 0.28594-0.37896 0.68385-0.56844 1.1937-0.56844zm-19.255 2.2221c-0.76826 0-1.3005 0.08785-1.5968 0.26355-0.29628 0.1757-0.44442 0.47542-0.44442 0.89917 0 0.33762 0.11024 0.60634 0.33073 0.80615 0.22393 0.19637 0.5271 0.29456 0.90951 0.29456 0.5271 0 0.94912-0.18604 1.2661-0.5581 0.3204-0.37552 0.48059-0.87333 0.48059-1.4935v-0.21187zm13.208 0c-0.76826 0-1.3005 0.08785-1.5968 0.26355-0.29628 0.1757-0.44442 0.47542-0.44442 0.89917 0 0.33762 0.11024 0.60634 0.33073 0.80615 0.22393 0.19637 0.5271 0.29456 0.9095 0.29456 0.5271 0 0.94912-0.18604 1.2661-0.5581 0.32039-0.37552 0.48059-0.87333 0.48059-1.4935v-0.21187z" fill="#000" stroke-opacity="0"/>
</g>
</g>
</g>
</svg>
